<?xml version="1.0" encoding="UTF-8" standalone="no"?>
<svg
   xmlns:dc="http://purl.org/dc/elements/1.1/"
   xmlns:cc="http://creativecommons.org/ns#"
   xmlns:rdf="http://www.w3.org/1999/02/22-rdf-syntax-ns#"
   xmlns:svg="http://www.w3.org/2000/svg"
   xmlns="http://www.w3.org/2000/svg"
   xmlns:xlink="http://www.w3.org/1999/xlink"
   xmlns:sodipodi="http://sodipodi.sourceforge.net/DTD/sodipodi-0.dtd"
   xmlns:inkscape="http://www.inkscape.org/namespaces/inkscape"
   width="564"
   height="168"
   id="svg-badge"
   version="1.1"
   inkscape:version="1.0 (4035a4fb49, 2020-05-01)"
   sodipodi:docname="get-it-on-blue-on-white.svg"
   inkscape:export-filename="/home/peter/git/GetItOnCodeberg/get-it-on-en.png"
   inkscape:export-xdpi="96"
   inkscape:export-ydpi="96">
  <defs
     id="defs8504">
    <linearGradient
       id="linearGradient6924">
      <stop
         id="stop6920"
         offset="0"
         style="stop-color:#ffffff;stop-opacity:0" />
      <stop
         style="stop-color:#71c2ff;stop-opacity:1"
         offset="0.49517274"
         id="stop6926" />
      <stop
         id="stop6922"
         offset="1"
         style="stop-color:#39aaff;stop-opacity:1" />
    </linearGradient>
    <linearGradient
       id="linearGradient6924-3">
      <stop
         id="stop6920-6"
         offset="0"
         style="stop-color:#ffffff;stop-opacity:0" />
      <stop
         style="stop-color:#ffffff;stop-opacity:1"
         offset="0.49517274"
         id="stop6926-7" />
      <stop
         id="stop6922-5"
         offset="1"
         style="stop-color:#ffffff;stop-opacity:1" />
    </linearGradient>
    <linearGradient
       inkscape:collect="always"
       xlink:href="#linearGradient6924"
       id="linearGradient931-3"
       gradientUnits="userSpaceOnUse"
       x1="42519.285"
       y1="-7078.7891"
       x2="42575.336"
       y2="-6966.9307" />
  </defs>
  <sodipodi:namedview
     id="base"
     pagecolor="#ffffff"
     bordercolor="#666666"
     borderopacity="1.0"
     inkscape:pageopacity="0.0"
     inkscape:pageshadow="2"
     inkscape:zoom="1.4142136"
     inkscape:cx="350.72881"
     inkscape:cy="148.85197"
     inkscape:document-units="px"
     inkscape:current-layer="layer1"
     showgrid="true"
     fit-margin-top="0"
     fit-margin-left="0"
     fit-margin-right="0"
     fit-margin-bottom="0"
     inkscape:window-width="1920"
     inkscape:window-height="1052"
     inkscape:window-x="1920"
     inkscape:window-y="0"
     inkscape:window-maximized="1"
     inkscape:document-rotation="0" />
  <metadata
     id="metadata8507">
    <rdf:RDF>
      <cc:Work
         rdf:about="">
        <dc:format>image/svg+xml</dc:format>
        <dc:type
           rdf:resource="http://purl.org/dc/dcmitype/StillImage" />
        <dc:title></dc:title>
        <dc:creator>
          <cc:Agent>
            <dc:title>Andrew Nayenko</dc:title>
          </cc:Agent>
        </dc:creator>
        <dc:publisher>
          <cc:Agent>
            <dc:title>https://f-droid.org</dc:title>
          </cc:Agent>
        </dc:publisher>
        <cc:license
           rdf:resource="http://creativecommons.org/licenses/by-sa/4.0/" />
        <dc:contributor>
          <cc:Agent>
            <dc:title />
          </cc:Agent>
        </dc:contributor>
      </cc:Work>
      <cc:License
         rdf:about="http://creativecommons.org/licenses/by-sa/4.0/">
        <cc:permits
           rdf:resource="http://creativecommons.org/ns#Reproduction" />
        <cc:permits
           rdf:resource="http://creativecommons.org/ns#Distribution" />
        <cc:requires
           rdf:resource="http://creativecommons.org/ns#Notice" />
        <cc:requires
           rdf:resource="http://creativecommons.org/ns#Attribution" />
        <cc:permits
           rdf:resource="http://creativecommons.org/ns#DerivativeWorks" />
        <cc:requires
           rdf:resource="http://creativecommons.org/ns#ShareAlike" />
      </cc:License>
    </rdf:RDF>
  </metadata>
  <g
     inkscape:label="Layer 1"
     inkscape:groupmode="layer"
     id="layer1"
     transform="translate(-289,-312.36218)">
    <g
       transform="translate(-39,-38.999987)"
       id="g1559">
      <rect
         ry="19.519785"
         rx="19.859365"
         y="355.33105"
         x="331.96887"
         height="160.06223"
         width="556.06226"
         id="rect"
         style="color:#000000;display:inline;overflow:visible;visibility:visible;fill:#ffffff;fill-opacity:1;fill-rule:nonzero;stroke:#a6a6a6;stroke-width:3.93777;stroke-miterlimit:4;stroke-dasharray:none;stroke-opacity:1;marker:none;enable-background:accumulate" />
      <text
         xml:space="preserve"
         style="color:#000000;font-style:normal;font-variant:normal;font-weight:normal;font-stretch:normal;font-size:11.8133px;line-height:0%;font-family:'DejaVu Sans';-inkscape-font-specification:'DejaVu Sans';letter-spacing:0px;word-spacing:0px;display:inline;overflow:visible;visibility:visible;fill:#2185d0;fill-opacity:1;fill-rule:nonzero;stroke:none;stroke-width:0.984443px;marker:none;enable-background:accumulate"
         x="503.31677"
         y="404.68204"
         id="text3013"
         transform="scale(1.0086608,0.99141352)"><tspan
           style="font-style:normal;font-variant:normal;font-weight:normal;font-stretch:normal;font-size:33.5941px;line-height:1;font-family:'DejaVu Sans';-inkscape-font-specification:'DejaVu Sans';fill:#2185d0;fill-opacity:1;stroke-width:0.984443px"
           sodipodi:role="line"
           id="claim-svg"
           x="503.31677"
           y="404.68204">GET IT ON</tspan></text>
      <path
         d="m 536.5943,423.45166 c -8.45269,0 -15.0459,2.7901 -19.80087,8.36821 -4.80279,5.57707 -7.2148,12.94266 -7.2148,22.09573 0,7.03347 1.76385,13.15727 5.28094,18.37142 4.86122,7.27472 12.2726,10.9113 22.19694,10.9113 6.90666,0 12.92077,-2.51542 18.04765,-7.54782 l -4.71778,-7.18441 c -4.56903,2.85016 -8.51114,4.27471 -11.84228,4.27471 -5.06844,0 -9.11148,-1.90967 -12.11854,-5.72849 -2.84766,-3.63867 -4.2715,-8.00372 -4.2715,-13.09671 0,-5.75983 1.21133,-10.42775 3.61272,-14.00428 2.77329,-4.1828 6.69415,-6.27472 11.74663,-6.27472 3.64991,0 7.68233,1.57494 12.10791,4.72797 l 4.73373,-7.54523 c -5.92379,-4.91022 -11.84226,-7.36768 -17.76075,-7.36768 z m 167.68312,0 -11.65632,6.45592 v 52.19883 h 9.44088 l 0.92442,-4.0909 c 2.84237,3.45538 6.8429,5.18281 12.02822,5.18281 5.23844,0 9.63745,-1.54779 13.22361,-4.6392 4.55839,-4.06165 6.84822,-10.03297 6.84822,-17.91396 0,-6.12224 -1.54603,-11.03299 -4.63278,-14.73171 -3.52241,-4.18332 -8.37832,-6.27471 -14.61025,-6.27471 -2.22607,0 -4.2662,0.41774 -6.10442,1.27363 -2.34828,1.09034 -4.17589,2.60786 -5.46158,4.54625 z m -62.73905,0.18277 -11.67226,6.36664 v 13.18546 c -2.89549,-2.30392 -6.47102,-3.45486 -10.72126,-3.45486 -4.9303,0 -9.15931,1.60629 -12.66575,4.81989 -4.69122,4.30448 -7.05544,10.42671 -7.05544,18.36881 0,5.63816 1.46634,10.24707 4.36184,13.82412 3.45332,4.30394 8.48456,6.45592 15.08308,6.45592 2.34295,0 4.62216,-0.51696 6.8376,-1.54727 2.23137,-1.0303 3.83053,-2.33317 4.82404,-3.90812 l 1.6629,4.36295 h 9.34525 z m -65.63985,16.09724 c -6.05662,0 -10.95503,1.87783 -14.71651,5.63608 -4.13867,4.12327 -6.20537,9.51914 -6.20537,16.18708 0,5.88097 1.85418,10.85438 5.55191,14.9155 4.13336,4.48568 9.27085,6.73008 15.36997,6.73008 5.25437,0 9.83933,-1.75875 13.78145,-5.27471 4.74965,-4.18332 7.12448,-9.6408 7.12448,-16.37087 0,-5.75775 -1.59915,-10.63769 -4.8081,-14.64033 -3.82523,-4.78907 -9.19116,-7.18283 -16.09783,-7.18283 z m 91.73641,0 c -5.98755,0 -10.91253,1.94102 -14.81745,5.82042 -4.31401,4.24442 -6.47633,9.60791 -6.47633,16.09516 0,6.60893 1.92324,11.79174 5.74316,15.55156 4.01648,4.00002 9.59494,6.0016 16.75662,6.0016 6.64633,0 12.20355,-1.94048 16.63974,-5.82145 l -2.96454,-6.09195 c -4.36715,2.42561 -8.55895,3.6371 -12.57014,3.6371 -2.84235,0 -5.30218,-0.90863 -7.40074,-2.72796 -2.05075,-1.87938 -3.19301,-4.21413 -3.41615,-7.00161 h 28.8486 v -4.18228 c 0,-6.00265 -1.59916,-10.88468 -4.80811,-14.64293 -3.69239,-4.42614 -8.88302,-6.63766 -15.53466,-6.63766 z m 92.53332,0 c -5.97692,0 -10.90721,1.94102 -14.80151,5.82042 -4.32462,4.24442 -6.47101,9.60791 -6.47101,16.09516 0,6.60893 1.9073,11.79174 5.73254,15.55156 4.00053,4.00002 9.58432,6.0016 16.75131,6.0016 6.65695,0 12.20353,-1.94048 16.65036,-5.82145 l -2.95392,-6.09195 c -4.3884,2.42561 -8.58552,3.6371 -12.58607,3.6371 -2.83704,0 -5.3075,-0.90863 -7.40607,-2.72796 -2.04012,-1.87938 -3.18236,-4.21413 -3.42676,-7.00161 h 28.87515 v -4.18228 c 0,-6.00265 -1.60446,-10.88468 -4.8134,-14.64293 -3.70835,-4.42614 -8.87771,-6.63766 -15.55062,-6.63766 z m 45.15893,0 c -1.83823,0 -3.67115,0.48565 -5.46156,1.45485 -1.72667,0.90862 -2.90079,2.00054 -3.51177,3.2726 l -1.11038,-3.635 h -9.89778 v 41.28385 h 11.47568 V 452.4618 c 0.97756,-2.12064 2.52359,-3.1807 4.62215,-3.1807 2.2792,0 4.44152,1.15093 6.4657,3.45434 l 9.81274,-5.2742 c -2.7095,-5.15356 -6.84287,-7.72957 -12.39478,-7.72957 z m 30.11838,0 c -4.88247,0 -9.10615,1.60629 -12.68171,4.81989 -4.69121,4.30448 -7.02354,10.42671 -7.02354,18.36881 0,5.57759 1.4345,10.18597 4.33526,13.82412 3.40021,4.30394 8.18705,6.45592 14.34994,6.45592 5.06307,0 8.97332,-2.03239 11.75724,-6.09404 0,9.09407 -3.34177,13.64189 -9.99869,13.64189 -4.69656,0 -8.92024,-1.21307 -12.68172,-3.63815 l -2.95394,5.81937 c 4.85591,4.36556 10.6363,6.54939 17.29321,6.54939 6.41261,0 11.35354,-1.85015 14.81214,-5.54887 3.50118,-3.75774 5.26498,-9.12435 5.25436,-16.09777 v -37.00811 h -8.97331 l -0.91379,4.45486 c 0,-0.60418 -0.89259,-1.51541 -2.68829,-2.72797 -2.71484,-1.87885 -6.00349,-2.81934 -9.88716,-2.81934 z m -167.90627,8.09406 c 5.55189,0 8.4952,2.97027 8.79272,8.91182 h -17.867 c 0.67472,-5.94155 3.70303,-8.91182 9.07428,-8.91182 z m 92.54395,0 c 5.54658,0 8.47395,2.97027 8.7874,8.91182 h -17.85637 c 0.67473,-5.94155 3.70303,-8.91182 9.06897,-8.91182 z m -184.18472,0.0888 c 5.98754,0 8.97865,4.54678 8.97865,13.64033 0,8.73112 -2.99111,13.09617 -8.97865,13.09617 -5.98224,0 -8.97867,-4.36505 -8.97867,-13.09617 0,-9.09355 2.99643,-13.64033 8.97867,-13.64033 z m 45.74335,0 c 2.04012,0 3.79336,0.67051 5.28095,2.00159 1.53008,1.27259 2.51826,2.90812 2.94329,4.90917 v 11.54997 c -0.31877,2.24283 -1.4079,4.24284 -3.3152,6.00108 -1.91261,1.69871 -3.98461,2.54727 -6.20006,2.54727 -5.98754,0 -8.97866,-4.51595 -8.97866,-13.54997 0,-4.12273 0.92444,-7.39482 2.77861,-9.81938 1.84886,-2.42561 4.34588,-3.63973 7.49107,-3.63973 z m 216.29006,0 c 1.98173,0 3.76148,0.69976 5.37657,2.09298 1.66822,1.33473 2.62459,2.93944 2.87425,4.81778 v 10.45957 c 0,2.60681 -0.93504,4.87836 -2.78392,6.81937 -1.85414,1.87887 -4.04302,2.81934 -6.57196,2.81934 -6.046,0 -9.07428,-4.51595 -9.07428,-13.54997 0,-4.12273 0.92441,-7.39482 2.77861,-9.81938 1.84882,-2.42561 4.32464,-3.63973 7.40073,-3.63973 z m -124.30927,0.094 c 2.83173,0 5.04718,1.21098 6.66228,3.63659 1.59384,2.42508 2.4067,5.72798 2.4067,9.91235 0,4.24337 -0.86599,7.57969 -2.59797,10.00529 -1.72667,2.42404 -4.06961,3.63658 -7.01823,3.63658 -2.29512,0 -4.30869,-0.75928 -6.03004,-2.27364 -1.67885,-1.51751 -2.60328,-3.39586 -2.76798,-5.63661 v -9.91547 c 0,-2.60629 0.89255,-4.81779 2.67234,-6.63713 1.85417,-1.81724 4.07493,-2.72796 6.6729,-2.72796 z"
         style="font-style:normal;font-variant:normal;font-weight:bold;font-stretch:normal;font-size:17.8986px;line-height:1.25;font-family:Tajawal;-inkscape-font-specification:'Tajawal Bold';font-variant-ligatures:normal;font-variant-caps:normal;font-variant-numeric:normal;font-variant-east-asian:normal;letter-spacing:-0.284861px;word-spacing:0px;fill:#2185d0;fill-opacity:1;stroke:none;stroke-width:2.29314"
         id="path6736-5-9"
         sodipodi:nodetypes="scscsccscscsccscccccscscsccccccscscscccccscscscscsscscsccscccscsscscsccscccscsscccccccsccsscscscsccscsccccssccssccsssssssccccsscssccscsscsscscsccscs" />
      <g
         id="g6933-6-1"
         transform="matrix(2.8605075,0,0,2.8115949,-31763.225,5669.5728)">
        <path
           id="path6733-2-2"
           style="font-variation-settings:normal;opacity:0.5;vector-effect:none;fill:url(#linearGradient931-3);fill-opacity:1;stroke:none;stroke-width:3.67846;stroke-linecap:butt;stroke-linejoin:miter;stroke-miterlimit:2;stroke-dasharray:none;stroke-dashoffset:0;stroke-opacity:1;paint-order:stroke markers fill;stop-color:#000000;stop-opacity:1"
           d="m 42519.285,-7078.7891 a 0.76086879,0.56791688 0 0 0 -0.738,0.6739 l 33.586,125.8886 a 87.182358,87.182358 0 0 0 39.381,-33.7636 l -71.565,-92.5196 a 0.76086879,0.56791688 0 0 0 -0.664,-0.2793 z"
           transform="scale(0.26458333)" />
        <path
           id="circle6810-9-7"
           style="opacity:1;fill:#2185d0;fill-opacity:1;stroke:none;stroke-width:2.01453px;stroke-opacity:1;paint-order:stroke markers fill;stop-color:#000000"
           d="m 42517.32,-7119.4805 a 87.182358,87.182358 0 0 0 -86.855,87.1817 87.182358,87.182358 0 0 0 13.312,46.3047 l 72.688,-93.9727 a 1.3609979,1.0158567 0 0 1 2.359,0 l 72.692,93.9766 a 87.182358,87.182358 0 0 0 13.314,-46.3086 87.182358,87.182358 0 0 0 -87.182,-87.1817 87.182358,87.182358 0 0 0 -0.328,0 z"
           transform="scale(0.26458333)" />
      </g>
    </g>
  </g>
</svg>
